An introduction to cutpointr
…
The returned object has the additional column boot which
is a nested tibble that includes the cutpoints per bootstrap sample
along with the metric calculated using the function in
metric and various default metrics. The metrics are
suffixed by _b to indicate in-bag results or
_oob to indicate out-of-bag results:

opt_cut_b$boot

## [[1]]
## # A tibble: 1,000 × 23
##    optimal_cutpoint AUC_b AUC_oob sum_sens_spec_b sum_sens_spec_oob acc_b
##               <dbl> <dbl>   <dbl>           <dbl>             <dbl> <dbl>
##  1                2 0.957   0.884            1.80              1.71 0.874
##  2                1 0.918   0.935            1.70              1.70 0.752
##  3                2 0.920   0.946            1.79              1.73 0.874
##  4                2 0.940   0.962            1.82              1.76 0.893
##  5                2 0.849   0.96             1.66              1.76 0.848
##  6                4 0.926   0.927            1.80              1.51 0.925
##  7                2 0.927   0.919            1.74              1.78 0.885
##  8                2 0.958   0.882            1.82              1.67 0.863
##  9                4 0.911   0.923            1.80              1.53 0.914
## 10                1 0.871   0.975            1.62              1.80 0.737
## # ℹ 990 more rows
## # ℹ 17 more variables: acc_oob <dbl>, sensitivity_b <dbl>,
## #   sensitivity_oob <dbl>, specificity_b <dbl>, specificity_oob <dbl>,
## #   cohens_kappa_b <dbl>, cohens_kappa_oob <dbl>, TP_b <dbl>, FP_b <dbl>,
## #   TN_b <int>, FN_b <int>, TP_oob <dbl>, FP_oob <dbl>, TN_oob <int>,
## #   FN_oob <int>, roc_curve_b <list>, roc_curve_oob <list>
…
